Modern R for STATEC
…
data(starwars) loads the example dataset called starwars that is included in the package dplyr. As I said earlier, this is just an example; you could have loaded an external dataset, from a .csv for instance. This does not matter for what comes next.

R includes a lot of function for descriptive statistics, such as mean(), sd(), cov(), and many more. What dplyr brings to the table is the possibility to apply these functions to the dataset easily. For example, imagine you want the average height of everyone in the dataset. Using the basic R functions, you could write this:

mean(starwars$height)

## [1] NA

starwars$height means that the user wants to access the column called height from the dataset starwars. This is then given as an argument to the function mean(). But what if the user wants the average height by species? Before dplyr, a solution to this simple problem would have required more than a single command. Now this is as easy as:

starwars %>%
  group_by(species) %>%
  summarise(mean(height))

## # A tibble: 38 x 2
##      species `mean(height)`
##        <chr>          <dbl>
##  1    Aleena        79.0000
##  2  Besalisk       198.0000
##  3    Cerean       198.0000
##  4  Chagrian       196.0000
##  5  Clawdite       168.0000
##  6     Droid             NA
##  7       Dug       112.0000
##  8      Ewok        88.0000
##  9 Geonosian       183.0000
## 10    Gungan       208.6667
## # ... with 28 more rows

Ok, I know what you’re thinking. What the hell is this weird %>% thing?. That weird thing is called the pipe operator. What it does is taking the left-hand side argument and piping it as the first argument of the function on the right-hand side. Try the following in the command line:

4 %>% sqrt()

## [1] 2

It is equivalent to sqrt(4). Why use that though? You will see in the next examples that using the %>% makes writing and reading code, much, much easier. For example, the previous manipulation I did could be read as “Take the starwars data, give it to the group_by() function and then compute the mean height”. Without the %>%, one would need to write:

summarise(group_by(starwars, species), mean(height))

## # A tibble: 38 x 2
##      species `mean(height)`
##        <chr>          <dbl>
##  1    Aleena        79.0000
##  2  Besalisk       198.0000
##  3    Cerean       198.0000
##  4  Chagrian       196.0000
##  5  Clawdite       168.0000
##  6     Droid             NA
##  7       Dug       112.0000
##  8      Ewok        88.0000
##  9 Geonosian       183.0000
## 10    Gungan       208.6667
## # ... with 28 more rows

as you can see, it is much more difficult to read. Imagine now that I want average height by species, but only for males. Again, this is very easy using %>%:

starwars %>%
  filter(gender == "male") %>%
  group_by(species) %>%
  summarise(mean(height))

## # A tibble: 32 x 2
##      species `mean(height)`
##        <chr>          <dbl>
##  1    Aleena        79.0000
##  2  Besalisk       198.0000
##  3    Cerean       198.0000
##  4  Chagrian       196.0000
##  5       Dug       112.0000
##  6      Ewok        88.0000
##  7 Geonosian       183.0000
##  8    Gungan       208.6667
##  9     Human             NA
## 10  Iktotchi       188.0000
## # ... with 22 more rows

Again, the %>% makes the above lines of code very easy to read. Without it, one would write:

summarise(group_by(filter(starwars, gender == "male"), species), mean(height))

## # A tibble: 32 x 2
##      species `mean(height)`
##        <chr>          <dbl>
##  1    Aleena        79.0000
##  2  Besalisk       198.0000
##  3    Cerean       198.0000
##  4  Chagrian       196.0000
##  5       Dug       112.0000
##  6      Ewok        88.0000
##  7 Geonosian       183.0000
##  8    Gungan       208.6667
##  9     Human             NA
## 10  Iktotchi       188.0000
## # ... with 22 more rows
…
You could then write this data to disk using rio::export() for instance. If you need more than the mean of the height, you can keep adding as many functions as needed:

summary_table = starwars %>%
  group_by(species) %>%
  summarise(ave_height = mean(height), var_height = var(height), n_obs = n())

print(summary_table)

## # A tibble: 38 x 4
##      species ave_height var_height n_obs
##        <chr>      <dbl>      <dbl> <int>
##  1    Aleena    79.0000         NA     1
##  2  Besalisk   198.0000         NA     1
##  3    Cerean   198.0000         NA     1
##  4  Chagrian   196.0000         NA     1
##  5  Clawdite   168.0000         NA     1
##  6     Droid         NA         NA     5
##  7       Dug   112.0000         NA     1
##  8      Ewok    88.0000         NA     1
##  9 Geonosian   183.0000         NA     1
## 10    Gungan   208.6667   201.3333     3
## # ... with 28 more rows
…
or if you want to remove these lines:

starwars %>%
  filter(!is.na(species))

## # A tibble: 82 x 13
##                  name height  mass    hair_color  skin_color eye_color
##                 <chr>  <int> <dbl>         <chr>       <chr>     <chr>
##  1     Luke Skywalker    172    77         blond        fair      blue
##  2              C-3PO    167    75          <NA>        gold    yellow
##  3              R2-D2     96    32          <NA> white, blue       red
##  4        Darth Vader    202   136          none       white    yellow
##  5        Leia Organa    150    49         brown       light     brown
##  6          Owen Lars    178   120   brown, grey       light      blue
##  7 Beru Whitesun lars    165    75         brown       light      blue
##  8              R5-D4     97    32          <NA>  white, red       red
##  9  Biggs Darklighter    183    84         black       light     brown
## 10     Obi-Wan Kenobi    182    77 auburn, white        fair blue-gray
## # ... with 72 more rows, and 7 more variables: birth_year <dbl>,
## #   gender <chr>, homeworld <chr>, species <chr>, films <list>,
## #   vehicles <list>, starships <list>
…
## Observations: 87
## Variables: 4
## $ name     <chr> "Luke Skywalker", "C-3PO", "R2-D2", "Darth Vader", "L...
## $ height   <int> 172, 167, 96, 202, 150, 178, 165, 97, 183, 182, 188, ...
## $ height_m <dbl> 1.72, 1.67, 0.96, 2.02, 1.50, 1.78, 1.65, 0.97, 1.83,...
## $ gender   <chr> "male", NA, NA, "male", "female", "male", "female", N...

The last thing I want to show you are the so-called scoped version of these functions. For example, what if I am only interested in columns that contains text? Is there a way to select them automatically? For this type of tasks, you can use select_if():

starwars %>%
  select_if(is.character)

## # A tibble: 87 x 7
##                  name    hair_color  skin_color eye_color gender homeworld
##                 <chr>         <chr>       <chr>     <chr>  <chr>     <chr>
##  1     Luke Skywalker         blond        fair      blue   male  Tatooine
##  2              C-3PO          <NA>        gold    yellow   <NA>  Tatooine
##  3              R2-D2          <NA> white, blue       red   <NA>     Naboo
##  4        Darth Vader          none       white    yellow   male  Tatooine
##  5        Leia Organa         brown       light     brown female  Alderaan
##  6          Owen Lars   brown, grey       light      blue   male  Tatooine
##  7 Beru Whitesun lars         brown       light      blue female  Tatooine
##  8              R5-D4          <NA>  white, red       red   <NA>  Tatooine
##  9  Biggs Darklighter         black       light     brown   male  Tatooine
## 10     Obi-Wan Kenobi auburn, white        fair blue-gray   male   Stewjon
## # ... with 77 more rows, and 1 more variables: species <chr>
…
