Modern R for STATEC
…
data(starwars) loads the example dataset called starwars that is included in the package dplyr. As I said earlier, this is just an example; you could have loaded an external dataset, from a .csv for instance. This does not matter for what comes next.

R includes a lot of function for descriptive statistics, such as mean(), sd(), cov(), and many more. What dplyr brings to the table is the possibility to apply these functions to the dataset easily. For example, imagine you want the average height of everyone in the dataset. Using the basic R functions, you could write this:

mean(starwars$height)

## [1] NA

starwars$height means that the user wants to access the column called height from the dataset starwars. This is then given as an argument to the function mean(). But what if the user wants the average height by species? Before dplyr, a solution to this simple problem would have required more than a single command. Now this is as easy as:

starwars %>%
  group_by(species) %>%
  summarise(mean(height))

## # A tibble: 38 x 2
##      species `mean(height)`
##        <chr>          <dbl>
##  1    Aleena        79.0000
##  2  Besalisk       198.0000
##  3    Cerean       198.0000
##  4  Chagrian       196.0000
##  5  Clawdite       168.0000
##  6     Droid             NA
##  7       Dug       112.0000
##  8      Ewok        88.0000
##  9 Geonosian       183.0000
## 10    Gungan       208.6667
## # ... with 28 more rows

Ok, I know what you’re thinking. *What the hell is this weird %>% thing?`. That is called the pipe operator. What it does is taking the left-hand side argument and piping it as the first argument of the function on the right-hand side. Try the following in the command line:

4 %>% sqrt()

## [1] 2

It is equivalent to sqrt(4). Why use that though? You will see in the next examples that using the %>% makes writing and reading code, much, much easier. For example, the previous manipulation I did could be read as “Take the starwars data, give it to the group_by() function and then compute the mean height”. Without the %>%, one would need to write:

summarise(group_by(starwars, species), mean(height))

## # A tibble: 38 x 2
##      species `mean(height)`
##        <chr>          <dbl>
##  1    Aleena        79.0000
##  2  Besalisk       198.0000
##  3    Cerean       198.0000
##  4  Chagrian       196.0000
##  5  Clawdite       168.0000
##  6     Droid             NA
##  7       Dug       112.0000
##  8      Ewok        88.0000
##  9 Geonosian       183.0000
## 10    Gungan       208.6667
## # ... with 28 more rows

as you can see, it is much more difficult to read. Imagine now that I want average height by species, but only for males. Again, this is very easy using %>%:

starwars %>%
  filter(gender == "male") %>%
  group_by(species) %>%
  summarise(mean(height))

## # A tibble: 32 x 2
##      species `mean(height)`
##        <chr>          <dbl>
##  1    Aleena        79.0000
##  2  Besalisk       198.0000
##  3    Cerean       198.0000
##  4  Chagrian       196.0000
##  5       Dug       112.0000
##  6      Ewok        88.0000
##  7 Geonosian       183.0000
##  8    Gungan       208.6667
##  9     Human             NA
## 10  Iktotchi       188.0000
## # ... with 22 more rows

Again, the %>% makes the above lines of code very easy to read. Without it, one would write:

summarise(group_by(filter(starwars, gender == "male"), species), mean(height))

## # A tibble: 32 x 2
##      species `mean(height)`
##        <chr>          <dbl>
##  1    Aleena        79.0000
##  2  Besalisk       198.0000
##  3    Cerean       198.0000
##  4  Chagrian       196.0000
##  5       Dug       112.0000
##  6      Ewok        88.0000
##  7 Geonosian       183.0000
##  8    Gungan       208.6667
##  9     Human             NA
## 10  Iktotchi       188.0000
## # ... with 22 more rows
…
