Modern R for STATEC
…
7.6 Advanced topics

7.6.1 Bootstrapping

The broom package includes a bootstrap() function that allows you to resample your data with replacement and estimate your model on each sample. A worked example is available in one of the package’s Vignette. R also includes a more general boot() function, but we are going to learn about this one later, as it involves some programming. Let’s go back to model_log, and try to get bootstrapped confidence intervals (as shown in the Vignette I linked above):

boot_result = Housing %>%
  bootstrap(50) %>%
  do(tidy(lm(log(price) ~ bedrooms + driveway, data = .)))

I just use 2 variables to make the output smaller. Let’s take a look at boot_result:

print(boot_result)

## # A tibble: 150 x 6
## # Groups:   replicate [50]
##    replicate        term   estimate  std.error  statistic      p.value
##        <int>       <chr>      <dbl>      <dbl>      <dbl>        <dbl>
##  1         1 (Intercept) 10.2691480 0.06612497 155.299091 0.000000e+00
##  2         1    bedrooms  0.1653885 0.01834047   9.017679 3.289600e-18
##  3         1 drivewayyes  0.3422638 0.03879711   8.821890 1.537261e-17
##  4         2 (Intercept) 10.1079413 0.06624453 152.585303 0.000000e+00
##  5         2    bedrooms  0.2325295 0.01853996  12.542069 7.224885e-32
##  6         2 drivewayyes  0.3196658 0.03952153   8.088397 3.969076e-15
##  7         3 (Intercept) 10.1945652 0.06741861 151.212929 0.000000e+00
##  8         3    bedrooms  0.1996018 0.01955275  10.208379 1.682842e-22
##  9         3 drivewayyes  0.3056554 0.03868654   7.900821 1.549478e-14
## 10         4 (Intercept) 10.2896575 0.06921918 148.653275 0.000000e+00
## # ... with 140 more rows
…
7.6.2 Cross-validation

To do cross-validation, we are going to use the modelr package, which is also part of the tidyverse.9

library(modelr)

modelr includes two functions for cross-validation, crossv_kfold and crossv_mc, which do K-fold Cross-Validation and Monte Carlo Cross-Validation respectively. First, let’s see what cross_mc() (cross_kfold()) returns when applied to data:

Housing %>%
  crossv_mc(n = 50) %>%
  print()

## # A tibble: 50 x 3
##             train           test   .id
##            <list>         <list> <chr>
##  1 <S3: resample> <S3: resample>    01
##  2 <S3: resample> <S3: resample>    02
##  3 <S3: resample> <S3: resample>    03
##  4 <S3: resample> <S3: resample>    04
##  5 <S3: resample> <S3: resample>    05
##  6 <S3: resample> <S3: resample>    06
##  7 <S3: resample> <S3: resample>    07
##  8 <S3: resample> <S3: resample>    08
##  9 <S3: resample> <S3: resample>    09
## 10 <S3: resample> <S3: resample>    10
## # ... with 40 more rows

This is a tibble with 3 colmuns, two of them being list-columns; train and test. Each element of train and test is a resampled tibble of the original data. This means that we can now estimate the our first model (the simple linear one) on each resampled data using map():

Now if we want to estimate all these models:

cv_models = Housing %>%
  crossv_mc(n = 50) %>%
  mutate(model = map(train, ~lm(price ~ ., data = .)))

print(cv_models)

## # A tibble: 50 x 4
##             train           test   .id    model
##            <list>         <list> <chr>   <list>
##  1 <S3: resample> <S3: resample>    01 <S3: lm>
##  2 <S3: resample> <S3: resample>    02 <S3: lm>
##  3 <S3: resample> <S3: resample>    03 <S3: lm>
##  4 <S3: resample> <S3: resample>    04 <S3: lm>
##  5 <S3: resample> <S3: resample>    05 <S3: lm>
##  6 <S3: resample> <S3: resample>    06 <S3: lm>
##  7 <S3: resample> <S3: resample>    07 <S3: lm>
##  8 <S3: resample> <S3: resample>    08 <S3: lm>
##  9 <S3: resample> <S3: resample>    09 <S3: lm>
## 10 <S3: resample> <S3: resample>    10 <S3: lm>
## # ... with 40 more rows
…
